{
  "mc_schema": 7,
  "sc_bsabE": null,
  "sc_code": "UBF",
  "sc_comment": "Rev. i BIP 1.3",
  "sc_id": 294,
  "sc_maincategory": 47,
  "sc_title": "Vakt Larmande/Styrande, nivå",
  "sc_usercode_syntax": "GL7xx",
  "etim": null,
  "aff": null
}