{
  "mc_schema": 3,
  "sc_bsabE": null,
  "sc_code": "SJB.1",
  "sc_comment": "",
  "sc_id": 399,
  "sc_maincategory": 96,
  "sc_title": "Laddningsbart batteri",
  "sc_usercode_syntax": "CC1xx",
  "etim": null,
  "aff": null
}