{
  "mc_schema": 3,
  "sc_bsabE": null,
  "sc_code": "SJF.4",
  "sc_comment": "",
  "sc_id": 403,
  "sc_maincategory": 96,
  "sc_title": "Frekvensomriktare",
  "sc_usercode_syntax": "TA2xx",
  "etim": null,
  "aff": null
}