{
  "mc_schema": 3,
  "sc_bsabE": null,
  "sc_code": "SCK",
  "sc_comment": "",
  "sc_id": 414,
  "sc_maincategory": 101,
  "sc_title": "Anslutningskabel",
  "sc_usercode_syntax": "WG2xx",
  "etim": null,
  "aff": null
}