{
  "mc_schema": 3,
  "sc_bsabE": null,
  "sc_code": "SBD.331",
  "sc_comment": "Rev. BSABwr i BIP 1.8",
  "sc_id": 424,
  "sc_maincategory": 103,
  "sc_title": "Kabelränna, lätt",
  "sc_usercode_syntax": "UB4xx",
  "etim": null,
  "aff": null
}