{
  "mc_schema": 3,
  "sc_bsabE": null,
  "sc_code": "SBF.4",
  "sc_comment": "",
  "sc_id": 434,
  "sc_maincategory": 103,
  "sc_title": "Vårdrumspanel",
  "sc_usercode_syntax": "UC7xx",
  "etim": null,
  "aff": null
}