{
  "mc_schema": 3,
  "sc_bsabE": null,
  "sc_code": "SEB.21",
  "sc_comment": "",
  "sc_id": 451,
  "sc_maincategory": 114,
  "sc_title": "Överströmsskydd",
  "sc_usercode_syntax": "FC2xx",
  "etim": null,
  "aff": null
}