{
  "mc_schema": 3,
  "sc_bsabE": null,
  "sc_code": "SEB.281",
  "sc_comment": "",
  "sc_id": 458,
  "sc_maincategory": 114,
  "sc_title": "Impedansmätande skydd",
  "sc_usercode_syntax": "FN4xx",
  "etim": null,
  "aff": null
}