{
  "mc_schema": 4,
  "sc_bsabE": null,
  "sc_code": "SFB",
  "sc_comment": "",
  "sc_id": 478,
  "sc_maincategory": 94,
  "sc_title": "Centralenhet/Server",
  "sc_usercode_syntax": "J1K1xx",
  "etim": null,
  "aff": null
}