{
  "mc_schema": 4,
  "sc_bsabE": null,
  "sc_code": "TFC.216",
  "sc_comment": "",
  "sc_id": 498,
  "sc_maincategory": 91,
  "sc_title": "Bildlagringsenhet",
  "sc_usercode_syntax": "F3C1xx",
  "etim": null,
  "aff": null
}