{
  "mc_schema": 4,
  "sc_bsabE": null,
  "sc_code": "TEB.21",
  "sc_comment": "",
  "sc_id": 509,
  "sc_maincategory": 102,
  "sc_title": "Undercentral",
  "sc_usercode_syntax": "C2K2xx",
  "etim": null,
  "aff": null
}