{
  "mc_schema": 4,
  "sc_bsabE": null,
  "sc_code": "TBB.24",
  "sc_comment": "",
  "sc_id": 542,
  "sc_maincategory": 99,
  "sc_title": "Seismisk detektor",
  "sc_usercode_syntax": "H2B6xx",
  "etim": null,
  "aff": null
}