{
  "mc_schema": 4,
  "sc_bsabE": null,
  "sc_code": "TBB.25",
  "sc_comment": "",
  "sc_id": 550,
  "sc_maincategory": 99,
  "sc_title": "Optiskt larmdon",
  "sc_usercode_syntax": "H2P3xx",
  "etim": null,
  "aff": null
}