{
  "mc_schema": 4,
  "sc_bsabE": null,
  "sc_code": "TFE.421",
  "sc_comment": "",
  "sc_id": 568,
  "sc_maincategory": 113,
  "sc_title": "Centralapparat",
  "sc_usercode_syntax": "E2K1xx",
  "etim": null,
  "aff": null
}