{
  "mc_schema": 4,
  "sc_bsabE": null,
  "sc_code": "TFE.423",
  "sc_comment": "",
  "sc_id": 571,
  "sc_maincategory": 113,
  "sc_title": "Manöverapparat",
  "sc_usercode_syntax": "E2S1xx",
  "etim": null,
  "aff": null
}