{
  "mc_schema": 4,
  "sc_bsabE": null,
  "sc_code": "TFE.32",
  "sc_comment": "",
  "sc_id": 573,
  "sc_maincategory": 100,
  "sc_title": "Basstation, intern",
  "sc_usercode_syntax": "E3K4xx",
  "etim": null,
  "aff": null
}