{
  "mc_schema": 2,
  "sc_bsabE": null,
  "sc_code": "PSG.260",
  "sc_comment": "Återströmningsskydd. Rev i BIP 1.3",
  "sc_id": 1251,
  "sc_maincategory": 29,
  "sc_title": "Typ CA vätskekategori 3",
  "sc_usercode_syntax": "ASS3xx",
  "etim": null,
  "aff": null
}