{
  "mc_schema": 1,
  "sc_bsabE": null,
  "sc_code": "RBI.121",
  "sc_comment": "",
  "sc_id": 1271,
  "sc_maincategory": 224,
  "sc_title": "Brandisolering utvändigt, med nätmattor av mineralull för rektangulära kanaler EI30",
  "sc_usercode_syntax": "-B103",
  "etim": null,
  "aff": null
}