{
  "mc_schema": 1,
  "sc_bsabE": null,
  "sc_code": "RBI.111",
  "sc_comment": "",
  "sc_id": 1277,
  "sc_maincategory": 224,
  "sc_title": "Brandisolering utvändigt, med nätmattor av mineralull för cirkulära kanaler EI120",
  "sc_usercode_syntax": "-B112",
  "etim": null,
  "aff": null
}