{
  "mc_schema": 2,
  "sc_bsabE": null,
  "sc_code": "PRB.15",
  "sc_comment": "i: Kompletteras med bokstav för golv typ (B, M, P, K, L, I eller N) enl. BIP, installationsutförande",
  "sc_id": 1279,
  "sc_maincategory": 156,
  "sc_title": "Golvbrunn av plast",
  "sc_usercode_syntax": "B1xxi",
  "etim": "EC010284",
  "aff": null
}