{
  "mc_schema": 1,
  "sc_bsabE": null,
  "sc_code": "RBI.121",
  "sc_comment": "",
  "sc_id": 1297,
  "sc_maincategory": 224,
  "sc_title": "Brandisolering utvändigt, med skivor av mineralull beklädda utv med stapelfiberflor  för rektangulära kanaler EI60",
  "sc_usercode_syntax": "-B506",
  "etim": null,
  "aff": null
}