{
  "mc_schema": 1,
  "sc_bsabE": null,
  "sc_code": "RBA.21",
  "sc_comment": "Brand + Kondensisolering. Rev. BSABwr i BIP 1.6",
  "sc_id": 1304,
  "sc_maincategory": 430,
  "sc_title": "Brandisolering utvändigt, med skivor av mineralull beklädda utv med al. folie för rektangulära kanaler. Brandisol EI90 + Kondensisol.",
  "sc_usercode_syntax": "-B609",
  "etim": null,
  "aff": null
}