{
  "mc_schema": 2,
  "sc_bsabE": null,
  "sc_code": "PUB.12",
  "sc_comment": "",
  "sc_id": 1321,
  "sc_maincategory": 176,
  "sc_title": "Inbyggnadsbadkar",
  "sc_usercode_syntax": "BK2xx",
  "etim": "EC011609",
  "aff": null
}