{
  "mc_schema": 2,
  "sc_bsabE": null,
  "sc_code": "PVB.22",
  "sc_comment": "",
  "sc_id": 1328,
  "sc_maincategory": 182,
  "sc_title": "Badkarsblandare",
  "sc_usercode_syntax": "BL4xx",
  "etim": "EC010862",
  "aff": null
}