{
  "mc_schema": 2,
  "sc_bsabE": null,
  "sc_code": "PPC.33",
  "sc_comment": "tex narkosutsug",
  "sc_id": 1337,
  "sc_maincategory": 154,
  "sc_title": "Brandstrypare för medicinska gaser ",
  "sc_usercode_syntax": "BSR2xx",
  "etim": null,
  "aff": null
}