{
  "mc_schema": 2,
  "sc_bsabE": null,
  "sc_code": "PNU.5221",
  "sc_comment": "Rev i BIP 1.3",
  "sc_id": 1351,
  "sc_maincategory": 153,
  "sc_title": "Ledningar av PVC-rör, inomhusavloppsrör",
  "sc_usercode_syntax": "C5",
  "etim": null,
  "aff": null
}