{
  "mc_schema": 7,
  "sc_bsabE": null,
  "sc_code": "TGC.3",
  "sc_comment": "Rev. i BIP ver 1.1",
  "sc_id": 1360,
  "sc_maincategory": 237,
  "sc_title": "Konverter. 2 Profibus",
  "sc_usercode_syntax": "CV2xx",
  "etim": null,
  "aff": null
}