{
  "mc_schema": 6,
  "sc_bsabE": null,
  "sc_code": "PBC.5121",
  "sc_comment": "",
  "sc_id": 1381,
  "sc_maincategory": 131,
  "sc_title": "Ledningar av HD-PE-rör",
  "sc_usercode_syntax": "E6",
  "etim": null,
  "aff": null
}