{
  "mc_schema": 9,
  "sc_bsabE": null,
  "sc_code": "NSC.2538",
  "sc_comment": "",
  "sc_id": 1457,
  "sc_maincategory": 121,
  "sc_title": "Inspektionslucka för AGV",
  "sc_usercode_syntax": "IL77",
  "etim": null,
  "aff": null
}