{
  "mc_schema": 2,
  "sc_bsabE": null,
  "sc_code": "PNU.3",
  "sc_comment": "",
  "sc_id": 1465,
  "sc_maincategory": 153,
  "sc_title": "Ledningar av kopparrör",
  "sc_usercode_syntax": "K1",
  "etim": null,
  "aff": null
}