{
  "mc_schema": 7,
  "sc_bsabE": null,
  "sc_code": "UC",
  "sc_comment": "Rev. i BIP ver 1.1",
  "sc_id": 1468,
  "sc_maincategory": 250,
  "sc_title": "Styrfunktionsenhet. 2 Profibus",
  "sc_usercode_syntax": "K2xx",
  "etim": null,
  "aff": null
}