{
  "mc_schema": 2,
  "sc_bsabE": null,
  "sc_code": "PJC.1",
  "sc_comment": "",
  "sc_id": 1501,
  "sc_maincategory": 138,
  "sc_title": "Kondensorer",
  "sc_usercode_syntax": "KD0xx",
  "etim": null,
  "aff": null
}