{
  "mc_schema": 2,
  "sc_bsabE": null,
  "sc_code": "PTC.2",
  "sc_comment": "",
  "sc_id": 1510,
  "sc_maincategory": 36,
  "sc_title": "Kyltak",
  "sc_usercode_syntax": "KLT0xx",
  "etim": null,
  "aff": null
}