{
  "mc_schema": 2,
  "sc_bsabE": null,
  "sc_code": "PJD.3",
  "sc_comment": "",
  "sc_id": 1513,
  "sc_maincategory": 139,
  "sc_title": "Kyltorn",
  "sc_usercode_syntax": "KN0xx",
  "etim": null,
  "aff": null
}