{
  "mc_schema": 1,
  "sc_bsabE": null,
  "sc_code": "QKB.1",
  "sc_comment": "",
  "sc_id": 1528,
  "sc_maincategory": 210,
  "sc_title": "Raka Ljuddämpare med cirkulär anslutning",
  "sc_usercode_syntax": "LD1xx",
  "etim": null,
  "aff": null
}