{
  "mc_schema": 1,
  "sc_bsabE": null,
  "sc_code": "QFC.21",
  "sc_comment": "Rev i BIP 1.5",
  "sc_id": 1532,
  "sc_maincategory": 197,
  "sc_title": "Batteriluftkylare för vätska",
  "sc_usercode_syntax": "LK0xx",
  "etim": null,
  "aff": null
}