{
  "mc_schema": 1,
  "sc_bsabE": null,
  "sc_code": "QFC.2",
  "sc_comment": "",
  "sc_id": 1533,
  "sc_maincategory": 197,
  "sc_title": "Batterivärmeväxlare (Kylare, frånluft)",
  "sc_usercode_syntax": "LKF0xx",
  "etim": null,
  "aff": null
}