{
  "mc_schema": 1,
  "sc_bsabE": null,
  "sc_code": "QGB.1",
  "sc_comment": "",
  "sc_id": 1535,
  "sc_maincategory": 54,
  "sc_title": "Engångsluftfilter",
  "sc_usercode_syntax": "LR1xx",
  "etim": null,
  "aff": null
}