{
  "mc_schema": 2,
  "sc_bsabE": null,
  "sc_code": "UGB.3",
  "sc_comment": "Rev BSAB i BIP 1.1",
  "sc_id": 1555,
  "sc_maincategory": 324,
  "sc_title": "Mätare för temperatur, Brandsläckningssystem",
  "sc_usercode_syntax": "MT4xx",
  "etim": null,
  "aff": null
}