{
  "mc_schema": 9,
  "sc_bsabE": null,
  "sc_code": "WEG",
  "sc_comment": "",
  "sc_id": 1559,
  "sc_maincategory": 269,
  "sc_title": "Motorventil",
  "sc_usercode_syntax": "MVx",
  "etim": null,
  "aff": null
}