{
  "mc_schema": 2,
  "sc_bsabE": null,
  "sc_code": "PVC.1",
  "sc_comment": "",
  "sc_id": 1562,
  "sc_maincategory": 39,
  "sc_title": "Nöddusch",
  "sc_usercode_syntax": "ND1xx",
  "etim": "EC011566",
  "aff": null
}