{
  "mc_schema": 2,
  "sc_bsabE": null,
  "sc_code": "PNU.515",
  "sc_comment": "Rev text i BIP 1.3",
  "sc_id": 1574,
  "sc_maincategory": 153,
  "sc_title": "Ledningar av PP-R-rör (PPR-rör), PN10 ",
  "sc_usercode_syntax": "P1",
  "etim": null,
  "aff": null
}