{
  "mc_schema": 9,
  "sc_bsabE": null,
  "sc_code": "WEC",
  "sc_comment": "",
  "sc_id": 1578,
  "sc_maincategory": 265,
  "sc_title": "Patronbroms",
  "sc_usercode_syntax": "PABx",
  "etim": null,
  "aff": null
}