{
  "mc_schema": 2,
  "sc_bsabE": null,
  "sc_code": "PKB",
  "sc_comment": "",
  "sc_id": 1589,
  "sc_maincategory": 142,
  "sc_title": "Pump för luftvärmare",
  "sc_usercode_syntax": "PLV6xx",
  "etim": "EC010980;EC011334;EC011333;EC010732",
  "aff": null
}