{
  "mc_schema": 7,
  "sc_bsabE": null,
  "sc_code": "SFC.3",
  "sc_comment": "",
  "sc_id": 1601,
  "sc_maincategory": 230,
  "sc_title": "Bildskärm",
  "sc_usercode_syntax": "Pxx",
  "etim": null,
  "aff": null
}