{
  "mc_schema": 2,
  "sc_bsabE": null,
  "sc_code": "PNU.2221",
  "sc_comment": "Rev. i BIP 1.5. OBS: PN25",
  "sc_id": 1610,
  "sc_maincategory": 153,
  "sc_title": "Ledningar av rostfritt stål, EN 1.4307. PN 25",
  "sc_usercode_syntax": "R4",
  "etim": "EC010950",
  "aff": null
}