{
  "mc_schema": 7,
  "sc_bsabE": null,
  "sc_code": "UCA",
  "sc_comment": "Rev. i BIP ver 1.1",
  "sc_id": 1625,
  "sc_maincategory": 251,
  "sc_title": "Reglercentral kommunicerande",
  "sc_usercode_syntax": "RCK1xx",
  "etim": null,
  "aff": null
}