{
  "mc_schema": 6,
  "sc_bsabE": null,
  "sc_code": "PDB.3",
  "sc_comment": "",
  "sc_id": 1663,
  "sc_maincategory": 134,
  "sc_title": "Spolbrunn",
  "sc_usercode_syntax": "SB1xx",
  "etim": null,
  "aff": null
}