{
  "mc_schema": 8,
  "sc_bsabE": null,
  "sc_code": "PSJ.1",
  "sc_comment": "TypeID defg-i enligt länk: https://docs.google.com/spreadsheets/d/19hvSQZ-UQlWnBfGB60zXi4l6Nkm9S-Y6qo7ebP8m4ds/edit?usp=sharing Rev i BIP 1.5 (Tidigare BIP 1.3: Spray K115. BIP 1.5 SH6x=Storage (ESFR) - Lagersprinkler)",
  "sc_id": 1672,
  "sc_maincategory": 172,
  "sc_title": "CMSA -Lagersprinkler, Storage",
  "sc_usercode_syntax": "SH6defg-i",
  "etim": null,
  "aff": null
}