{
  "mc_schema": 8,
  "sc_bsabE": null,
  "sc_code": "PSJ.1",
  "sc_comment": "TypeID defg-i enligt länk: https://docs.google.com/spreadsheets/d/19hvSQZ-UQlWnBfGB60zXi4l6Nkm9S-Y6qo7ebP8m4ds/edit?usp=sharing Rev i BIP 1.5 (tidigare Dry Sidewall och SH8xx=EC-sprinkler (Extended Coverage)",
  "sc_id": 1674,
  "sc_maincategory": 172,
  "sc_title": "Specialsprinkler, Projektspecifik",
  "sc_usercode_syntax": "SH8defg-i",
  "etim": null,
  "aff": null
}