{
  "mc_schema": 2,
  "sc_bsabE": null,
  "sc_code": "PSA.21",
  "sc_comment": "",
  "sc_id": 1676,
  "sc_maincategory": 18,
  "sc_title": "Shuntgrupp för tappvatten",
  "sc_usercode_syntax": "SHG2xx",
  "etim": "EC004089",
  "aff": null
}