{
  "mc_schema": 2,
  "sc_bsabE": null,
  "sc_code": "PVD.1",
  "sc_comment": "Rev. i BIP ver 1.5",
  "sc_id": 1687,
  "sc_maincategory": 186,
  "sc_title": "Uttag stigarrör med ventil, tappkallvatten",
  "sc_usercode_syntax": "SLV2xx",
  "etim": null,
  "aff": null
}