{
  "mc_schema": 1,
  "sc_bsabE": null,
  "sc_code": "QJB.1",
  "sc_comment": "",
  "sc_id": 1688,
  "sc_maincategory": 202,
  "sc_title": "Vridspjäll",
  "sc_usercode_syntax": "SP1xx",
  "etim": null,
  "aff": null
}