{
  "mc_schema": 7,
  "sc_bsabE": null,
  "sc_code": "UEB.14",
  "sc_comment": "Rev. i BIP ver 1.1",
  "sc_id": 1704,
  "sc_maincategory": 254,
  "sc_title": "6 Ställdon, Spjäll kontinuerlig med fjäder mot öppet läge.",
  "sc_usercode_syntax": "ST6xx",
  "etim": null,
  "aff": null
}