{
  "mc_schema": 9,
  "sc_bsabE": null,
  "sc_code": "WEF",
  "sc_comment": "",
  "sc_id": 1711,
  "sc_maincategory": 268,
  "sc_title": "Stationslösning SFD 160. Motordriven",
  "sc_usercode_syntax": "STU2",
  "etim": null,
  "aff": null
}