{
  "mc_schema": 1,
  "sc_bsabE": null,
  "sc_code": "QAB",
  "sc_comment": "",
  "sc_id": 1729,
  "sc_maincategory": 62,
  "sc_title": "Tilluftsaggregat",
  "sc_usercode_syntax": "TA0xx",
  "etim": null,
  "aff": null
}