{
  "mc_schema": 1,
  "sc_bsabE": null,
  "sc_code": "QMC.2",
  "sc_comment": "",
  "sc_id": 1733,
  "sc_maincategory": 72,
  "sc_title": "Tilluftsdon för infällt montage i tak",
  "sc_usercode_syntax": "TD2xx",
  "etim": null,
  "aff": null
}