{
  "mc_schema": 2,
  "sc_bsabE": null,
  "sc_code": "PUC.14",
  "sc_comment": "",
  "sc_id": 1757,
  "sc_maincategory": 177,
  "sc_title": "Tvättställ av plast",
  "sc_usercode_syntax": "TS4xx",
  "etim": "EC011550",
  "aff": null
}