{
  "mc_schema": 2,
  "sc_bsabE": null,
  "sc_code": "PVB.11",
  "sc_comment": "",
  "sc_id": 1762,
  "sc_maincategory": 182,
  "sc_title": "Tappventil för vätska",
  "sc_usercode_syntax": "TV1xx",
  "etim": "EC011375",
  "aff": null
}