{
  "mc_schema": 1,
  "sc_bsabE": null,
  "sc_code": "QMB.1",
  "sc_comment": "",
  "sc_id": 1764,
  "sc_maincategory": 71,
  "sc_title": "Uteluftsdon med ytterväggsgaller",
  "sc_usercode_syntax": "UD1xx",
  "etim": null,
  "aff": null
}