{
  "mc_schema": 2,
  "sc_bsabE": null,
  "sc_code": "PUE.11",
  "sc_comment": "",
  "sc_id": 1792,
  "sc_maincategory": 179,
  "sc_title": "Golvmonterad klosett för HWC",
  "sc_usercode_syntax": "VK3xx",
  "etim": "EC011318",
  "aff": null
}