{
  "mc_schema": 2,
  "sc_bsabE": null,
  "sc_code": "PVB.12",
  "sc_comment": "",
  "sc_id": 1802,
  "sc_maincategory": 182,
  "sc_title": "Väggvattenutkastare",
  "sc_usercode_syntax": "VUK1xx",
  "etim": "EC011378",
  "aff": null
}