{
  "mc_schema": 2,
  "sc_bsabE": null,
  "sc_code": "RBB.112",
  "sc_comment": "Utgått i BIP 1.6. Använd istället K6 med Dy inkl. isolering",
  "sc_id": 1820,
  "sc_maincategory": 223,
  "sc_title": "Cupiro 140. (Prisol) Prefabricerad. isolering",
  "sc_usercode_syntax": "-X11",
  "etim": null,
  "aff": null
}