{
  "mc_schema": 2,
  "sc_bsabE": null,
  "sc_code": "PNU.5142",
  "sc_comment": "Rev i BIP 1.4",
  "sc_id": 1823,
  "sc_maincategory": 153,
  "sc_title": "Ledningar av PEX (PE-Xa) rör, Värme / Tappvatten. Ex Universalrör, Combi",
  "sc_usercode_syntax": "X3",
  "etim": null,
  "aff": null
}