{
  "mc_schema": 1,
  "sc_bsabE": null,
  "sc_code": "RBI.121",
  "sc_comment": "Används ej. Använd B612 istället (BIP 1.4)",
  "sc_id": 1833,
  "sc_maincategory": 224,
  "sc_title": "Brandisolering utvändigt, med skivor av mineralul lbeklädda utv med al. folie för rektangulära kanaler EI120. Utv. kondensisolering",
  "sc_usercode_syntax": "-BK412",
  "etim": null,
  "aff": null
}