{
  "mc_schema": 1,
  "sc_bsabE": null,
  "sc_code": "RBA.22",
  "sc_comment": "OBS: tjocklek 150 mm. Rev. BSABwr i BIP 1.6",
  "sc_id": 1843,
  "sc_maincategory": 430,
  "sc_title": "Kondensisolering utvändigt, med skivor av mineralull 150 mm beklädda utv med al. folie för rektangulära kanaler",
  "sc_usercode_syntax": "-K615",
  "etim": null,
  "aff": null
}