{
  "mc_schema": 1,
  "sc_bsabE": null,
  "sc_code": "RBA.22",
  "sc_comment": "Rev. BSABwr i BIP 1.6",
  "sc_id": 1849,
  "sc_maincategory": 430,
  "sc_title": "Kondensisolering invändigt, med skivor av mineralull 30 mm beklädda utv med glasfiberväv för rektangulära kanaler",
  "sc_usercode_syntax": "-K803",
  "etim": null,
  "aff": null
}