{
  "mc_schema": 1,
  "sc_bsabE": null,
  "sc_code": "RBI.211",
  "sc_comment": "tjocklek 40 mm",
  "sc_id": 1868,
  "sc_maincategory": 224,
  "sc_title": "Värmeisolering utvändigt, med nätmattor av mineralull 40 mm  för cirkulära kanaler",
  "sc_usercode_syntax": "-V104",
  "etim": null,
  "aff": null
}