{
  "mc_schema": 1,
  "sc_bsabE": null,
  "sc_code": "RBI.221",
  "sc_comment": "tjocklek 70 mm",
  "sc_id": 1875,
  "sc_maincategory": 224,
  "sc_title": "Värmeisolering utvändigt, med nätmattor av mineralull 70 mm  för rektangulära kanaler",
  "sc_usercode_syntax": "-V107",
  "etim": null,
  "aff": null
}