{
  "mc_schema": 1,
  "sc_bsabE": null,
  "sc_code": "RBI.221",
  "sc_comment": "tjocklek 30 mm",
  "sc_id": 1907,
  "sc_maincategory": 224,
  "sc_title": "Värmeisolering utvändigt, med lamellmattor av mineralull 30 mm  för rektangulära kanaler",
  "sc_usercode_syntax": "-V303",
  "etim": null,
  "aff": null
}