{
  "mc_schema": 1,
  "sc_bsabE": null,
  "sc_code": "RBI.221",
  "sc_comment": "tjocklek 50 mm",
  "sc_id": 1911,
  "sc_maincategory": 224,
  "sc_title": "Värmeisolering utvändigt, med lamellmattor av mineralull 50 mm  för rektangulära kanaler",
  "sc_usercode_syntax": "-V305",
  "etim": null,
  "aff": null
}