{
  "mc_schema": 1,
  "sc_bsabE": null,
  "sc_code": "RBI.211",
  "sc_comment": "tjocklek 80 mm",
  "sc_id": 1916,
  "sc_maincategory": 224,
  "sc_title": "Värmeisolering utvändigt, med lamellmattor av mineralull 80 mm  för cirkulära kanaler",
  "sc_usercode_syntax": "-V308",
  "etim": null,
  "aff": null
}