{
  "mc_schema": 1,
  "sc_bsabE": null,
  "sc_code": "RBI.211",
  "sc_comment": "tjocklek 50 mm",
  "sc_id": 1930,
  "sc_maincategory": 224,
  "sc_title": "Värmeisolering utvändigt, med lamellmattor av mineralull 50 mm beklädda utv med al. folie för cirkulära kanaler",
  "sc_usercode_syntax": "-V405",
  "etim": null,
  "aff": null
}