{
  "mc_schema": 3,
  "sc_bsabE": null,
  "sc_code": "SKB.1",
  "sc_comment": "",
  "sc_id": 1969,
  "sc_maincategory": 278,
  "sc_title": "Utomhusställverk, högspänning",
  "sc_usercode_syntax": "AB1xx",
  "etim": null,
  "aff": null
}