{
  "mc_schema": 3,
  "sc_bsabE": null,
  "sc_code": "SKF.7",
  "sc_comment": "",
  "sc_id": 1996,
  "sc_maincategory": 278,
  "sc_title": "Säkerhetsbrytare",
  "sc_usercode_syntax": "QB1xx",
  "etim": null,
  "aff": null
}