{
  "mc_schema": 7,
  "sc_bsabE": "",
  "sc_code": "UBD.12",
  "sc_comment": "Rev i BIP 1.3",
  "sc_id": 2004,
  "sc_maincategory": 243,
  "sc_title": "Kanalmonterade fuktgivare, kontinuerliga elektriska, reglerande funktion",
  "sc_usercode_syntax": "GM1xx",
  "etim": null,
  "aff": null
}