{
  "mc_schema": 7,
  "sc_bsabE": "",
  "sc_code": "UBD.21",
  "sc_comment": "Ny i BIP 1.1",
  "sc_id": 2009,
  "sc_maincategory": 243,
  "sc_title": "Rumsmonterade Fuktgivare, stegvis elektriska, fuktvakt, larmande funktion",
  "sc_usercode_syntax": "GM6xx",
  "etim": null,
  "aff": null
}