{
  "mc_schema": 7,
  "sc_bsabE": "",
  "sc_code": "UBC.12",
  "sc_comment": "Ny i BIP 1.1",
  "sc_id": 2014,
  "sc_maincategory": 61,
  "sc_title": "Kanalmonterade Tryckgivare, kontinuerliga elektriska, Reglerande",
  "sc_usercode_syntax": "GP1xx",
  "etim": null,
  "aff": null
}