{
  "mc_schema": 7,
  "sc_bsabE": "",
  "sc_code": "UBB.22",
  "sc_comment": "Ny i BIP 1.1",
  "sc_id": 2043,
  "sc_maincategory": 241,
  "sc_title": "Rumsmonterade Temperaturgivare, kontinuerliga elektriska, Vakt Larmande-stegvis",
  "sc_usercode_syntax": "GT6xy",
  "etim": null,
  "aff": null
}