{
  "mc_schema": 1,
  "sc_bsabE": "",
  "sc_code": "RCF.41",
  "sc_comment": "Kod efter termisk isolering på kanaler. Ny i BIP ver 1.1",
  "sc_id": 2081,
  "sc_maincategory": 279,
  "sc_title": "Ytbekl. av plastplåt på isol. cirk. vent.kanal",
  "sc_usercode_syntax": "-Y41",
  "etim": null,
  "aff": null
}