{
  "mc_schema": 11,
  "sc_bsabE": "27.D",
  "sc_code": "",
  "sc_comment": "BSAB-83: 32",
  "sc_id": 2237,
  "sc_maincategory": 341,
  "sc_title": "Pelare generisk",
  "sc_usercode_syntax": "Pxx",
  "etim": null,
  "aff": null
}