{
  "mc_schema": 11,
  "sc_bsabE": "27.D/34",
  "sc_code": "",
  "sc_comment": "BSAB-83: 35",
  "sc_id": 2239,
  "sc_maincategory": 341,
  "sc_title": "Pelare - stål",
  "sc_usercode_syntax": "SPxx",
  "etim": null,
  "aff": null
}