{
  "mc_schema": 11,
  "sc_bsabE": "41.E",
  "sc_code": "",
  "sc_comment": "BSAB-83: 45",
  "sc_id": 2256,
  "sc_maincategory": 347,
  "sc_title": "Rökluckor",
  "sc_usercode_syntax": "RLxx",
  "etim": null,
  "aff": null
}