{
  "mc_schema": 11,
  "sc_bsabE": "42.D",
  "sc_code": "",
  "sc_comment": "BSAB-83: 55",
  "sc_id": 2271,
  "sc_maincategory": 353,
  "sc_title": "Lucka - stål",
  "sc_usercode_syntax": "LYSxx",
  "etim": null,
  "aff": null
}