{
  "mc_schema": 11,
  "sc_bsabE": "43.E",
  "sc_code": "",
  "sc_comment": "BSAB-83: 64",
  "sc_id": 2290,
  "sc_maincategory": 336,
  "sc_title": "Innertak",
  "sc_usercode_syntax": "ITxx",
  "etim": null,
  "aff": null
}