{
  "mc_schema": 11,
  "sc_bsabE": "27.HFB",
  "sc_code": "",
  "sc_comment": "BSAB-83: 36. Rev i BIP .16",
  "sc_id": 2293,
  "sc_maincategory": 349,
  "sc_title": "Hiss (Schaktstomme Hiss)",
  "sc_usercode_syntax": "H1xx",
  "etim": null,
  "aff": null
}