{
  "mc_schema": 11,
  "sc_bsabE": "46.B",
  "sc_code": "",
  "sc_comment": "BSAB-83: 72",
  "sc_id": 2305,
  "sc_maincategory": 344,
  "sc_title": "Golvlister",
  "sc_usercode_syntax": "GLxx",
  "etim": null,
  "aff": null
}