{
  "mc_schema": 11,
  "sc_bsabE": "46.B",
  "sc_code": "",
  "sc_comment": "BSAB-83: 77",
  "sc_id": 2307,
  "sc_maincategory": 333,
  "sc_title": "Högskåp med hyllor i kök",
  "sc_usercode_syntax": "HSxx",
  "etim": null,
  "aff": null
}