{
  "mc_schema": 5,
  "sc_bsabE": "",
  "sc_code": "PSG.24",
  "sc_comment": "Ny i BIP 1.3",
  "sc_id": 2341,
  "sc_maincategory": 354,
  "sc_title": "Återsugningsskydd för gas",
  "sc_usercode_syntax": "ASS8xx",
  "etim": "EC010959",
  "aff": null
}