{
  "mc_schema": 1,
  "sc_bsabE": "",
  "sc_code": "QEA.2",
  "sc_comment": "Ny TypeID i BIP 1.3",
  "sc_id": 2354,
  "sc_maincategory": 355,
  "sc_title": "Spisfläktar",
  "sc_usercode_syntax": "SF7xx",
  "etim": null,
  "aff": null
}