{
  "mc_schema": 12,
  "sc_bsabE": "",
  "sc_code": "SN",
  "sc_comment": "Kod efter armatur. Ny i BIP 1.3",
  "sc_id": 2373,
  "sc_maincategory": 357,
  "sc_title": "Infälld",
  "sc_usercode_syntax": "I",
  "etim": null,
  "aff": null
}