{
  "mc_schema": 12,
  "sc_bsabE": "",
  "sc_code": "SN",
  "sc_comment": "Kod efter armatur. Ny i BIP 1.3",
  "sc_id": 2382,
  "sc_maincategory": 357,
  "sc_title": "På rörstolpe",
  "sc_usercode_syntax": "Y",
  "etim": null,
  "aff": null
}