{
  "mc_schema": 11,
  "sc_bsabE": "27.E",
  "sc_code": "",
  "sc_comment": "Ny i 1.3",
  "sc_id": 2396,
  "sc_maincategory": 335,
  "sc_title": "Kantbalk",
  "sc_usercode_syntax": "KBxx",
  "etim": null,
  "aff": null
}