{
  "mc_schema": 11,
  "sc_bsabE": "42.D.",
  "sc_code": "",
  "sc_comment": "BSAB-83: 55. Ny i v. 1.3",
  "sc_id": 2400,
  "sc_maincategory": 331,
  "sc_title": "Ytterdörr av stål",
  "sc_usercode_syntax": "YDSxx",
  "etim": null,
  "aff": null
}