{
  "mc_schema": 7,
  "sc_bsabE": "",
  "sc_code": "SLF.22",
  "sc_comment": "Ny i BIP 1.3",
  "sc_id": 2404,
  "sc_maincategory": 233,
  "sc_title": "Närvarodetektor. Styrande",
  "sc_usercode_syntax": "GN3xx",
  "etim": null,
  "aff": null
}