{
  "mc_schema": 7,
  "sc_bsabE": "",
  "sc_code": "UBA",
  "sc_comment": "Ny i BIP 1.3",
  "sc_id": 2421,
  "sc_maincategory": 240,
  "sc_title": "Givare för två eller flera funktioner. Begränsande",
  "sc_usercode_syntax": "GA2xx",
  "etim": null,
  "aff": null
}