{
  "mc_schema": 7,
  "sc_bsabE": "",
  "sc_code": "UBE.12",
  "sc_comment": "Rev i BIP 1.3",
  "sc_id": 2434,
  "sc_maincategory": 244,
  "sc_title": "Kanalmonterade Flödesgivare , kontinuerliga elektriska.  Vakt Larmande-stegvis",
  "sc_usercode_syntax": "GF6xx",
  "etim": null,
  "aff": null
}