{
  "mc_schema": 7,
  "sc_bsabE": "",
  "sc_code": "UBL",
  "sc_comment": "Ny i BIP 1.3",
  "sc_id": 2451,
  "sc_maincategory": 366,
  "sc_title": "Ljusgivare, Givare för strålning. Styrande-stegvis",
  "sc_usercode_syntax": "GR5xx",
  "etim": null,
  "aff": null
}