{
  "mc_schema": 7,
  "sc_bsabE": "",
  "sc_code": "UBH.12",
  "sc_comment": "Rev i BIP 1.3",
  "sc_id": 2459,
  "sc_maincategory": 246,
  "sc_title": "Kanalmonterade Givare, Hastighet, kontinuerliga elektriska. Mätande",
  "sc_usercode_syntax": "GS4xx",
  "etim": null,
  "aff": null
}