{
  "mc_schema": 7,
  "sc_bsabE": "",
  "sc_code": "UBA",
  "sc_comment": "Ny i BIP 1.3",
  "sc_id": 2468,
  "sc_maincategory": 240,
  "sc_title": "Givare+BV+TK+HastOmk.  Mätande",
  "sc_usercode_syntax": "GTO4xx",
  "etim": null,
  "aff": null
}