{
  "mc_schema": 7,
  "sc_bsabE": "",
  "sc_code": "UBY",
  "sc_comment": "Ny i BIP 1.3\t",
  "sc_id": 2476,
  "sc_maincategory": 249,
  "sc_title": "Givare övrigt. Styrande",
  "sc_usercode_syntax": "GX3xx",
  "etim": null,
  "aff": null
}