{
  "mc_schema": 7,
  "sc_bsabE": "",
  "sc_code": "UBY",
  "sc_comment": "Ny i BIP 1.3",
  "sc_id": 2481,
  "sc_maincategory": 249,
  "sc_title": "Givare övrigt. Vakt",
  "sc_usercode_syntax": "GX8xx",
  "etim": null,
  "aff": null
}