{
  "mc_schema": 7,
  "sc_bsabE": "",
  "sc_code": "UBE.32",
  "sc_comment": "Ny i BIP 1.3",
  "sc_id": 2504,
  "sc_maincategory": 244,
  "sc_title": "Rörmonterade Flödesgivare , kontinuerliga elektriska. Styrande-stegvis",
  "sc_usercode_syntax": "GF5xy",
  "etim": null,
  "aff": null
}