{
  "mc_schema": 7,
  "sc_bsabE": "",
  "sc_code": "UBK.32",
  "sc_comment": "Ny i BIP 1.3",
  "sc_id": 2531,
  "sc_maincategory": 247,
  "sc_title": "Rörmonterade, Givare, Koncentration, kontinuerliga elektriska. Vakt Larmande/Styrande",
  "sc_usercode_syntax": "GQ7xy",
  "etim": null,
  "aff": null
}