{
  "mc_schema": 8,
  "sc_bsabE": "",
  "sc_code": "PNU.2152",
  "sc_comment": "Ny i BIP 1.4",
  "sc_id": 2559,
  "sc_maincategory": 321,
  "sc_title": "Ledningar av stålrör, Tunnväggiga stålrör, ytbehandlade. SS-EN 10296-1 (Sprinkler)",
  "sc_usercode_syntax": "S14",
  "etim": null,
  "aff": null
}