{
  "mc_schema": 6,
  "sc_bsabE": "",
  "sc_code": "PB-.3131",
  "sc_comment": "Ny i BIP 1.4",
  "sc_id": 2582,
  "sc_maincategory": 130,
  "sc_title": "Kopparrör, Förisolerat kulvertrör. Flex Singel PUR PE-LD",
  "sc_usercode_syntax": "K9",
  "etim": null,
  "aff": null
}