{
  "mc_schema": 2,
  "sc_bsabE": "",
  "sc_code": "PNU.5142",
  "sc_comment": "Ny i BIP 1.5",
  "sc_id": 2622,
  "sc_maincategory": 153,
  "sc_title": "Ledningar av PEX (PE-Xa) rör, Värme / Tappvatten med Rör i Rör (RiR). Ex Universalrör, Combi",
  "sc_usercode_syntax": "X31",
  "etim": null,
  "aff": null
}