{
  "mc_schema": 4,
  "sc_bsabE": "",
  "sc_code": "SDC.32",
  "sc_comment": "Ny i BIP 1.5",
  "sc_id": 2634,
  "sc_maincategory": 93,
  "sc_title": "Spridningsplint",
  "sc_usercode_syntax": "H1X4xx",
  "etim": null,
  "aff": null
}