{
  "mc_schema": 4,
  "sc_bsabE": "",
  "sc_code": "TFE.53",
  "sc_comment": "ny i BIP 1.5",
  "sc_id": 2642,
  "sc_maincategory": 380,
  "sc_title": "Apparater, allmän",
  "sc_usercode_syntax": "E1P2xy",
  "etim": null,
  "aff": null
}