{
  "mc_schema": 1,
  "sc_bsabE": "",
  "sc_code": "REI.211",
  "sc_comment": "Rev BSABwr. Tjocklek 20 mm, Ny i BIP 1.5",
  "sc_id": 2645,
  "sc_maincategory": 395,
  "sc_title": "Ljudisolering utvändigt, med nätmattor av mineralull 20 mm för cirkulära kanaler",
  "sc_usercode_syntax": "-L102",
  "etim": null,
  "aff": null
}