{
  "mc_schema": 1,
  "sc_bsabE": "",
  "sc_code": "REI.211",
  "sc_comment": "Rev BSABwr. Tjocklek 50 mm, Ny i BIP 1.5",
  "sc_id": 2671,
  "sc_maincategory": 395,
  "sc_title": "Ljudisolering utvändigt, med nätmattor av mineralull 50 mm beklädda utv med al. folie för cirkulära kanaler",
  "sc_usercode_syntax": "-L205",
  "etim": null,
  "aff": null
}