{
  "mc_schema": 1,
  "sc_bsabE": "",
  "sc_code": "REI.221",
  "sc_comment": "Rev BSABwr. Tjocklek 150 mm, Ny i BIP 1.5",
  "sc_id": 2684,
  "sc_maincategory": 395,
  "sc_title": "Ljudisolering utvändigt, med nätmattor av mineralull 150 mm beklädda utv med al. folie för rektangulära kanaler",
  "sc_usercode_syntax": "-L215",
  "etim": null,
  "aff": null
}