{
  "mc_schema": 2,
  "sc_bsabE": "",
  "sc_code": "PNU.5111",
  "sc_comment": "Nu i BIP 1.5",
  "sc_id": 2708,
  "sc_maincategory": 153,
  "sc_title": "Ledningar av PVC-rör, standardiserade tryckrör. Fogtyp: Limfog. ",
  "sc_usercode_syntax": "C2",
  "etim": null,
  "aff": null
}