{
  "mc_schema": 2,
  "sc_bsabE": "",
  "sc_code": "PNU.52242",
  "sc_comment": "Ny i BIP 1.5",
  "sc_id": 2722,
  "sc_maincategory": 153,
  "sc_title": "Ledningar av ABS-rör, fabrikatspecifika inomhusavloppsrör",
  "sc_usercode_syntax": "A2",
  "etim": null,
  "aff": null
}