{
  "mc_schema": 2,
  "sc_bsabE": "",
  "sc_code": "PUE.112",
  "sc_comment": "Ny i BIP 1.5",
  "sc_id": 2745,
  "sc_maincategory": 179,
  "sc_title": "Golvmonterade klosetter av rostfritt stål",
  "sc_usercode_syntax": "VK6xx",
  "etim": "EC011318",
  "aff": null
}