{
  "mc_schema": 3,
  "sc_bsabE": "",
  "sc_code": "SBG.2",
  "sc_comment": "Ny i BIP 1.5",
  "sc_id": 2757,
  "sc_maincategory": 103,
  "sc_title": "Uttagsbox",
  "sc_usercode_syntax": "UC9xy",
  "etim": null,
  "aff": null
}