{
  "mc_schema": 2,
  "sc_bsabE": "",
  "sc_code": "RBB.23",
  "sc_comment": "Ny i BIP 1.5",
  "sc_id": 2763,
  "sc_maincategory": 223,
  "sc_title": "Termisk isolering med lamellmattor av mineralull på rörledning. Tjocklek 20 mm",
  "sc_usercode_syntax": "-M20",
  "etim": null,
  "aff": null
}