{
  "mc_schema": 2,
  "sc_bsabE": "",
  "sc_code": "PAK.12",
  "sc_comment": "Ny i BIP 1.5",
  "sc_id": 2773,
  "sc_maincategory": 1,
  "sc_title": "Pumpstation för avlopp",
  "sc_usercode_syntax": "PPK3xx",
  "etim": null,
  "aff": null
}