{
  "mc_schema": 1,
  "sc_bsabE": "",
  "sc_code": "QL",
  "sc_comment": "Ny i BIP 1.5",
  "sc_id": 2785,
  "sc_maincategory": 391,
  "sc_title": "Ventilationskanal av odefinierat kanalmaterial",
  "sc_usercode_syntax": "0",
  "etim": null,
  "aff": null
}