{
  "mc_schema": 2,
  "sc_bsabE": "",
  "sc_code": "RCB.12",
  "sc_comment": "Ny i BIP 1.5",
  "sc_id": 2790,
  "sc_maincategory": 225,
  "sc_title": "Vågprofilerad metalliserad stålplåt på isolerad rörledning. ",
  "sc_usercode_syntax": "-G",
  "etim": null,
  "aff": null
}