{
  "mc_schema": 2,
  "sc_bsabE": "",
  "sc_code": "RCB.25",
  "sc_comment": "Ny i BIP 1.5",
  "sc_id": 2793,
  "sc_maincategory": 225,
  "sc_title": "Vågprofilerad mönsterpräglad aluminiumplåt på isolerad rörledning. ",
  "sc_usercode_syntax": "-K",
  "etim": null,
  "aff": null
}