{
  "mc_schema": 8,
  "sc_bsabE": "",
  "sc_code": "UGA",
  "sc_comment": "Ny i BIP 1.5",
  "sc_id": 2812,
  "sc_maincategory": 394,
  "sc_title": "Brandvattenmätare",
  "sc_usercode_syntax": "VM4xx",
  "etim": null,
  "aff": null
}