{
  "mc_schema": 2,
  "sc_bsabE": "",
  "sc_code": "PSD.311",
  "sc_comment": "Rev. i BIP 1.7",
  "sc_id": 2816,
  "sc_maincategory": 26,
  "sc_title": "Styrventil trevägs kontinuerlig verkan, analog signal. Platsmonterat ställdon i vätskesystem med avstängnings-, injusterings- och mätningsfunktion.",
  "sc_usercode_syntax": "SV3xz",
  "etim": null,
  "aff": null
}