{
  "mc_schema": 1,
  "sc_bsabE": "",
  "sc_code": "QGD.2",
  "sc_comment": "Ny i BIP 1.5",
  "sc_id": 2822,
  "sc_maincategory": 397,
  "sc_title": "Cyklonavskiljare",
  "sc_usercode_syntax": "STA2xx",
  "etim": "",
  "aff": ""
}