{
  "mc_schema": 1,
  "sc_bsabE": "",
  "sc_code": "QGD.3",
  "sc_comment": "Ny i BIP 1.5",
  "sc_id": 2823,
  "sc_maincategory": 397,
  "sc_title": "Stoftavskiljare, Tvättare",
  "sc_usercode_syntax": "STA3xx",
  "etim": "",
  "aff": ""
}