{
  "mc_schema": 2,
  "sc_bsabE": "",
  "sc_code": "PNU.362",
  "sc_comment": "Ny i BIP 1.5",
  "sc_id": 2828,
  "sc_maincategory": 153,
  "sc_title": "Kylkopparrör tillverkade enligt EN 12735-1. Glödgade kopparrör i slinga ",
  "sc_usercode_syntax": "K13",
  "etim": "",
  "aff": ""
}