{
  "mc_schema": 1,
  "sc_bsabE": "",
  "sc_code": "QJC.1",
  "sc_comment": "Ny i BIP 1.6",
  "sc_id": 2834,
  "sc_maincategory": 58,
  "sc_title": "Brandgasspjäll, brandteknisk klass, och konstanttryckhållningsfunktion",
  "sc_usercode_syntax": "BGS3xx",
  "etim": "",
  "aff": ""
}