{
  "mc_schema": 1,
  "sc_bsabE": "",
  "sc_code": "QLC.11",
  "sc_comment": "Ny i BIP 1.6",
  "sc_id": 2843,
  "sc_maincategory": 213,
  "sc_title": "Cirkulära markkanaler av PP-/ PE-plast",
  "sc_usercode_syntax": "71",
  "etim": "",
  "aff": ""
}