{
  "mc_schema": 11,
  "sc_bsabE": "42.D",
  "sc_code": "NSD.731",
  "sc_comment": "BSAB83:55. Ny i BIP 1.6",
  "sc_id": 2848,
  "sc_maincategory": 339,
  "sc_title": "Persienner till takfönster ed",
  "sc_usercode_syntax": "PE3xx",
  "etim": "",
  "aff": ""
}