{
  "mc_schema": 4,
  "sc_bsabE": "",
  "sc_code": "TBB.24",
  "sc_comment": "Ny i BIP 1.6",
  "sc_id": 2874,
  "sc_maincategory": 399,
  "sc_title": "Detektor, övrig (t ex trampdetektor, foliedetektor, tråddetektor)",
  "sc_usercode_syntax": "H9B9xx",
  "etim": "",
  "aff": ""
}