{
  "mc_schema": 4,
  "sc_bsabE": "",
  "sc_code": "TBB.122",
  "sc_comment": "Ny i BIP 1.6",
  "sc_id": 2879,
  "sc_maincategory": 93,
  "sc_title": "Samplingsrör",
  "sc_usercode_syntax": "H1W8xx",
  "etim": "",
  "aff": ""
}