{
  "mc_schema": 4,
  "sc_bsabE": "",
  "sc_code": "TBB.23",
  "sc_comment": "Ny i BIP 1.6",
  "sc_id": 2885,
  "sc_maincategory": 399,
  "sc_title": "Manöverenhet",
  "sc_usercode_syntax": "H9S1xx",
  "etim": "",
  "aff": ""
}