{
  "mc_schema": 6,
  "sc_bsabE": "",
  "sc_code": "PB-.5121",
  "sc_comment": "Ny i BIP 1.6",
  "sc_id": 2895,
  "sc_maincategory": 130,
  "sc_title": "Ledningar av PE-rör, standardiserade tryckrör: Stumsvets",
  "sc_usercode_syntax": "E9",
  "etim": "",
  "aff": ""
}