{
  "mc_schema": 6,
  "sc_bsabE": "",
  "sc_code": "CEC.4111",
  "sc_comment": "Ny i BIP 1.6",
  "sc_id": 2909,
  "sc_maincategory": 403,
  "sc_title": "Resterande fyllning för va-ledning",
  "sc_usercode_syntax": "RFY1xx",
  "etim": "",
  "aff": ""
}