{
  "mc_schema": 6,
  "sc_bsabE": "",
  "sc_code": "CEC.4114",
  "sc_comment": "Ny i BIP 1.6",
  "sc_id": 2912,
  "sc_maincategory": 403,
  "sc_title": "Resterande fyllning för ledning i väg, plan o d kategori A samt järnväg",
  "sc_usercode_syntax": "RFY4xx",
  "etim": "",
  "aff": ""
}