{
  "mc_schema": 6,
  "sc_bsabE": "",
  "sc_code": "CEC.4132",
  "sc_comment": "Ny i BIP 1.6",
  "sc_id": 2914,
  "sc_maincategory": 403,
  "sc_title": "Resterande fyllning för kylledning",
  "sc_usercode_syntax": "RFY5xx",
  "etim": "",
  "aff": ""
}