{
  "mc_schema": 13,
  "sc_bsabE": "",
  "sc_code": "DCK.26",
  "sc_comment": "Ny i BIP 1.6",
  "sc_id": 2963,
  "sc_maincategory": 406,
  "sc_title": "Erosionsskydd av tillvaratagen markvegetation och jordmån",
  "sc_usercode_syntax": "SKR6xx",
  "etim": "",
  "aff": ""
}