{
  "mc_schema": 13,
  "sc_bsabE": "",
  "sc_code": "DCC.2",
  "sc_comment": "Ny i BIP 1.6",
  "sc_id": 2976,
  "sc_maincategory": 406,
  "sc_title": "Bitumenbundna överbyggnadslager kategori B för väg, plan o d",
  "sc_usercode_syntax": "OBB2xx",
  "etim": "",
  "aff": ""
}