{
  "mc_schema": 14,
  "sc_bsabE": "",
  "sc_code": "",
  "sc_comment": "Space name (Room name) BSABs= 222.BB. CoClass=BAA",
  "sc_id": 2992,
  "sc_maincategory": 410,
  "sc_title": "Kontorsrum",
  "sc_usercode_syntax": "KONTOR",
  "etim": "",
  "aff": ""
}