{
  "mc_schema": 15,
  "sc_bsabE": "",
  "sc_code": "RB",
  "sc_comment": "Rev i BIP 1.7",
  "sc_id": 3007,
  "sc_maincategory": 414,
  "sc_title": "R3 enligt Branschstandard teknisk isolering, BTI. tekniskisolering.se/bti/",
  "sc_usercode_syntax": "R3",
  "etim": "",
  "aff": ""
}