{
  "mc_schema": 15,
  "sc_bsabE": "",
  "sc_code": "RB",
  "sc_comment": "Rev i BIP 1.7",
  "sc_id": 3016,
  "sc_maincategory": 421,
  "sc_title": "V1 enligt Branschstandard teknisk isolering, BTI. tekniskisolering.se/bti/",
  "sc_usercode_syntax": "V1",
  "etim": "",
  "aff": ""
}