{
  "mc_schema": 15,
  "sc_bsabE": "",
  "sc_code": "RB",
  "sc_comment": "Rev i BIP 1.7",
  "sc_id": 3018,
  "sc_maincategory": 423,
  "sc_title": "V3 enligt Branschstandard teknisk isolering, BTI. tekniskisolering.se/bti/",
  "sc_usercode_syntax": "V3",
  "etim": "",
  "aff": ""
}