{
  "mc_schema": 8,
  "sc_bsabE": "",
  "sc_code": "PPC.1",
  "sc_comment": "Ny i BIP 1.6",
  "sc_id": 3045,
  "sc_maincategory": 428,
  "sc_title": "Upphängningar, fästdon, stöd och fundament till rörledningar i brandsläckningssystem",
  "sc_usercode_syntax": "UN4xx",
  "etim": "",
  "aff": ""
}