{
  "mc_schema": 1,
  "sc_bsabE": "",
  "sc_code": "RBI.221",
  "sc_comment": "Rev i BIP 1.7. ƙ enligt isoleringsklass branschstandard BTI. Ex texttagg: -V1IV250 för ƙ=V1, tjocklek=50 mm",
  "sc_id": 3076,
  "sc_maincategory": 224,
  "sc_title": "Värmeisolering utvändigt, med nätmattor av mineralull beklädda utv med al. folie för rektangulära kanaler (V2).  Tjocklek aab mm enligt tabell i texttagg -ƙIV2aab, egenskap: InsulationThickness. Isolerad upphängning.",
  "sc_usercode_syntax": "-ƙIV2",
  "etim": "",
  "aff": ""
}