{
  "mc_schema": 1,
  "sc_bsabE": "",
  "sc_code": "RBI.221",
  "sc_comment": "Rev i BIP 1.7. ƙ enligt isoleringsklass branschstandard BTI. Ex texttagg: -V1V450 för ƙ=V1, tjocklek=50 mm",
  "sc_id": 3079,
  "sc_maincategory": 224,
  "sc_title": "Värmeisolering utvändigt, med lamellmattor av mineralull beklädda utv med al. folie för rektangulära kanaler (V4). Isolertjocklek aab mm enligt tabell i texttagg -ƙV4aab, egenskap: InsulationThickness.",
  "sc_usercode_syntax": "-ƙV4",
  "etim": "",
  "aff": ""
}