{
  "mc_schema": 1,
  "sc_bsabE": "",
  "sc_code": "RBI.211",
  "sc_comment": "Rev i BIP 1.7. ƙ enligt isoleringsklass branschstandard BTI.Ex texttagg: -V1IV450 för ƙ=V1, tjocklek=50 mm",
  "sc_id": 3080,
  "sc_maincategory": 224,
  "sc_title": "Värmeisolering utvändigt, med lamellmattor av mineralull beklädda utv med al. folie för cirkulära kanaler (V4). Isolertjocklek aab mm enligt tabell i texttagg -ƙIV4aab, egenskap: InsulationThickness. Isolerad upphängning.",
  "sc_usercode_syntax": "-ƙIV4",
  "etim": "",
  "aff": ""
}