{
  "mc_schema": 7,
  "sc_bsabE": "",
  "sc_code": "SKB.51",
  "sc_comment": "Ny i BIP 1.7",
  "sc_id": 3105,
  "sc_maincategory": 433,
  "sc_title": "Apparatskåp för Pumpar mm",
  "sc_usercode_syntax": "AS2xx",
  "etim": "",
  "aff": ""
}