{
  "mc_schema": 2,
  "sc_bsabE": "",
  "sc_code": "PHB.4",
  "sc_comment": "Ny i BIP 1.7",
  "sc_id": 3112,
  "sc_maincategory": 136,
  "sc_title": "Ångpanna",
  "sc_usercode_syntax": "NGP2xx",
  "etim": "",
  "aff": ""
}