{
  "mc_schema": 2,
  "sc_bsabE": "",
  "sc_code": "PNU.5121",
  "sc_comment": "Ny i BIP 1.6",
  "sc_id": 3129,
  "sc_maincategory": 153,
  "sc_title": "Ledningar av PE-RT flerskiktsrör med pressrörskopplingar",
  "sc_usercode_syntax": "E81",
  "etim": "",
  "aff": ""
}