{
  "mc_schema": 8,
  "sc_bsabE": "",
  "sc_code": "PLB.2",
  "sc_comment": "Ny i BIP 1.7",
  "sc_id": 3132,
  "sc_maincategory": 435,
  "sc_title": "Avtappningskärl för sprinkleranläggning",
  "sc_usercode_syntax": "AVK4xx",
  "etim": "",
  "aff": ""
}