{
  "mc_schema": 2,
  "sc_bsabE": "",
  "sc_code": "RBB.11",
  "sc_comment": "Ny i BIP 1.7",
  "sc_id": 3166,
  "sc_maincategory": 223,
  "sc_title": "Isolering av syntetiskt cellgummi med brandkrav på rörledning som är placerad tex i utrymningsväg. Tjocklek 25 mm",
  "sc_usercode_syntax": "-V25",
  "etim": "",
  "aff": ""
}