{
  "mc_schema": 6,
  "sc_bsabE": "",
  "sc_code": "PDJ.12",
  "sc_comment": "Ny i BIP 1.7",
  "sc_id": 3167,
  "sc_maincategory": 441,
  "sc_title": "Dagvattenränna av polymerbetong",
  "sc_usercode_syntax": "DR2xx",
  "etim": "",
  "aff": ""
}