{
  "mc_schema": 6,
  "sc_bsabE": "",
  "sc_code": "PDJ.11",
  "sc_comment": "Ny i BIP 1.7",
  "sc_id": 3168,
  "sc_maincategory": 441,
  "sc_title": "Dagvattenränna av rostfritt stål",
  "sc_usercode_syntax": "DR1xx",
  "etim": "",
  "aff": ""
}