{
  "mc_schema": 4,
  "sc_bsabE": "",
  "sc_code": "TFE.722",
  "sc_comment": "Ny i BIP 1.7",
  "sc_id": 3197,
  "sc_maincategory": 100,
  "sc_title": "Anropsapparat",
  "sc_usercode_syntax": "E3P3xx",
  "etim": "",
  "aff": ""
}