{
  "mc_schema": 17,
  "sc_bsabE": "",
  "sc_code": "DEQ.2",
  "sc_comment": "Ny i BIP 1.7",
  "sc_id": 3203,
  "sc_maincategory": 449,
  "sc_title": "Infästningar i berg",
  "sc_usercode_syntax": "INF0xx",
  "etim": "",
  "aff": ""
}