{
  "mc_schema": 17,
  "sc_bsabE": "",
  "sc_code": "ZSE.2",
  "sc_comment": "Ny i BIP 1.7",
  "sc_id": 3205,
  "sc_maincategory": 450,
  "sc_title": "Infästningar i stål",
  "sc_usercode_syntax": "INF2xx",
  "etim": "",
  "aff": ""
}