{
  "mc_schema": 2,
  "sc_bsabE": "",
  "sc_code": "PJB.2",
  "sc_comment": "Ny i BIP 1.7",
  "sc_id": 3211,
  "sc_maincategory": 137,
  "sc_title": "Värmeväxlare för fjärrkyla",
  "sc_usercode_syntax": "VVX5xy",
  "etim": "",
  "aff": ""
}