{
  "mc_schema": 4,
  "sc_bsabE": "",
  "sc_code": "TBB.111",
  "sc_comment": "Ny i BIP 1.6",
  "sc_id": 3212,
  "sc_maincategory": 93,
  "sc_title": "Centralapparat",
  "sc_usercode_syntax": "H1K1xx",
  "etim": "",
  "aff": ""
}