{
  "mc_schema": 6,
  "sc_bsabE": "",
  "sc_code": "PB-.5121",
  "sc_comment": "Ny i BIP 1.7",
  "sc_id": 3217,
  "sc_maincategory": 130,
  "sc_title": "Mjuk polyetenledning PEL",
  "sc_usercode_syntax": "E23",
  "etim": "",
  "aff": ""
}