{
  "mc_schema": 1,
  "sc_bsabE": "",
  "sc_code": "QFB.2",
  "sc_comment": "Ny i BIP 1.8",
  "sc_id": 3220,
  "sc_maincategory": 196,
  "sc_title": "Motströmsvärmeväxlare",
  "sc_usercode_syntax": "MSV0xx",
  "etim": "",
  "aff": ""
}