{
  "mc_schema": 7,
  "sc_bsabE": "",
  "sc_code": "SEA.1",
  "sc_comment": "Ny i BIP 2.0",
  "sc_id": 3226,
  "sc_maincategory": 453,
  "sc_title": "Personskyddsautomat",
  "sc_usercode_syntax": "FB5xx",
  "etim": "",
  "aff": ""
}