{
  "pr_id": 70,
  "prop_title": "StoreyName",
  "prop_comment": "Våningsplan",
  "prop_example": "5",
  "prop_architect": true,
  "prop_construct": true,
  "prop_electricity": true,
  "prop_mep": true,
  "prop_class": "S",
  "prop_datatype": "Text",
  "prop_title_url": null,
  "prop_comment_url": null,
  "prop_priority": 2,
  "prop_space": null
}