{
  "pr_id": 87,
  "prop_title": "DamperPosition",
  "prop_comment": "Produktens egna skala för injustering, ventilation",
  "prop_example": "2.8",
  "prop_architect": false,
  "prop_construct": false,
  "prop_electricity": false,
  "prop_mep": true,
  "prop_class": "F",
  "prop_datatype": "Parameter Value",
  "prop_title_url": null,
  "prop_comment_url": null,
  "prop_priority": 4,
  "prop_space": null
}