{
  "pr_id": 88,
  "prop_title": "nValue",
  "prop_comment": "Produktens egna skala för injustering, VS",
  "prop_example": "2,5",
  "prop_architect": false,
  "prop_construct": false,
  "prop_electricity": false,
  "prop_mep": true,
  "prop_class": "F",
  "prop_datatype": "Real",
  "prop_title_url": null,
  "prop_comment_url": null,
  "prop_priority": 4,
  "prop_space": null
}