{
  "pr_id": 101,
  "prop_title": "HeatingPower_W",
  "prop_comment": "Värmeeffekt för VVS i Watt",
  "prop_example": "",
  "prop_architect": false,
  "prop_construct": false,
  "prop_electricity": false,
  "prop_mep": true,
  "prop_class": "F",
  "prop_datatype": "Power",
  "prop_title_url": null,
  "prop_comment_url": null,
  "prop_priority": 4,
  "prop_space": null
}