{
  "pr_id": 109,
  "prop_title": "Friction_Pa/m",
  "prop_comment": "Tryckfall i rörledning",
  "prop_example": "17,904",
  "prop_architect": false,
  "prop_construct": false,
  "prop_electricity": false,
  "prop_mep": true,
  "prop_class": "F",
  "prop_datatype": "Pressure",
  "prop_title_url": null,
  "prop_comment_url": null,
  "prop_priority": 4,
  "prop_space": null
}