{
  "pr_id": 130,
  "prop_title": "Height",
  "prop_comment": "Höjdmått",
  "prop_example": "600 mm",
  "prop_architect": true,
  "prop_construct": true,
  "prop_electricity": true,
  "prop_mep": true,
  "prop_class": "S",
  "prop_datatype": "PositiveLength",
  "prop_title_url": null,
  "prop_comment_url": null,
  "prop_priority": 3,
  "prop_space": null
}