{
  "pr_id": 151,
  "prop_title": "Flow_m3/h",
  "prop_comment": "Flödet på en produkt, rör eller kanal ",
  "prop_example": "360",
  "prop_architect": false,
  "prop_construct": false,
  "prop_electricity": false,
  "prop_mep": true,
  "prop_class": "F",
  "prop_datatype": "VolumetricFlowRate",
  "prop_title_url": "",
  "prop_comment_url": "",
  "prop_priority": 4,
  "prop_space": null
}