{
  "pr_id": 162,
  "prop_title": "BPDStatus",
  "prop_comment": "Status för Building Product Declaration BPD. Ex: Svensk ByggvaruBedömning. BVD Byggvarudeklaration eller SundaHus Miljödata",
  "prop_example": "Accepteras",
  "prop_architect": true,
  "prop_construct": true,
  "prop_electricity": true,
  "prop_mep": true,
  "prop_class": "A",
  "prop_datatype": "Label",
  "prop_title_url": "",
  "prop_comment_url": "Ny i BIP 1.1 (2018-02-06)",
  "prop_priority": 4,
  "prop_space": null
}