{
  "pr_id": 171,
  "prop_title": "FloorType",
  "prop_comment": "Golvmaterial",
  "prop_example": "Plastmatta",
  "prop_architect": true,
  "prop_construct": false,
  "prop_electricity": false,
  "prop_mep": false,
  "prop_class": "F",
  "prop_datatype": "Label",
  "prop_title_url": "",
  "prop_comment_url": "Ny i BIP 1.5",
  "prop_priority": 5,
  "prop_space": null
}