{
  "pr_id": 178,
  "prop_title": "FMGUID",
  "prop_comment": "Unik genererad kod som används till/från och i förvaltningen för kontinuitet av objektID, som följer objektet under dess livslängd.",
  "prop_example": "D485E85C-34AF-4D82-9E42-334DE0CADB05",
  "prop_architect": true,
  "prop_construct": true,
  "prop_electricity": true,
  "prop_mep": true,
  "prop_class": "S",
  "prop_datatype": "Label",
  "prop_title_url": "",
  "prop_comment_url": "Ny i BIP 1.6",
  "prop_priority": 5,
  "prop_space": true
}