{
  "pr_id": 193,
  "prop_title": "MountingLocation",
  "prop_comment": "Montageläge. I viket delutrymme eller typ av utrymme objektet är installerat. ",
  "prop_example": "Ovan undertak/Pumpgrop mitt i rummet/Schakt (som förtydligande till schakt/inklädnad) i rum ",
  "prop_architect": true,
  "prop_construct": false,
  "prop_electricity": true,
  "prop_mep": true,
  "prop_class": "A",
  "prop_datatype": "Label",
  "prop_title_url": "",
  "prop_comment_url": "Ny 2020-10-13. Rev 2021-09-10",
  "prop_priority": 5,
  "prop_space": null
}