{
  "pr_id": 196,
  "prop_title": "FluidCode",
  "prop_comment": "Mediakod för systemet. Tex SSG Media Code",
  "prop_example": "V17",
  "prop_architect": false,
  "prop_construct": false,
  "prop_electricity": false,
  "prop_mep": true,
  "prop_class": "A",
  "prop_datatype": "Label",
  "prop_title_url": "",
  "prop_comment_url": "Ny i BIP 1.6 (2021-05-24)",
  "prop_priority": 6,
  "prop_space": null
}