{
  "sys_id": 10,
  "sys_discipline": "VA",
  "sys_type_id": "DTxx",
  "sys_maincategory": "Dagvattensystem",
  "sys_subcategory": "Dagvatten, tryckledning",
  "sys_type": "",
  "sys_sub": "",
  "sys_bsab": "51.CC",
  "sys_coclass": "G21.JD20",
  "sys_comment": "",
  "aff": "SC4.1.3"
}