{
  "sys_id": 11,
  "sys_discipline": "VA",
  "sys_type_id": "Dxx",
  "sys_maincategory": "Dagvattensystem",
  "sys_subcategory": "Dagvatten",
  "sys_type": "",
  "sys_sub": "",
  "sys_bsab": "51.CC",
  "sys_coclass": "G21",
  "sys_comment": "",
  "aff": "SC4.1.3"
}