{
  "sys_id": 15,
  "sys_discipline": "VA",
  "sys_type_id": "ODxx",
  "sys_maincategory": "Ledningssystem för olja och drivmedel",
  "sys_subcategory": "Dieselolja (Olja, Diesel)",
  "sys_type": "",
  "sys_sub": "",
  "sys_bsab": "51.G",
  "sys_coclass": "F42",
  "sys_comment": "Tidigare DO. Bättre med OljaDiesel då D=Dagvatten",
  "aff": "SC4.6\n"
}