{
  "sys_id": 29,
  "sys_discipline": "VS",
  "sys_type_id": "Axx",
  "sys_maincategory": "Ångsystem",
  "sys_subcategory": "Ångsystem",
  "sys_type": "",
  "sys_sub": "",
  "sys_bsab": "52.E",
  "sys_coclass": "E60",
  "sys_comment": "",
  "aff": "SC4.2.2"
}