{
  "sys_id": 40,
  "sys_discipline": "Gas",
  "sys_type_id": "GC31",
  "sys_maincategory": "System för medicinsk gas",
  "sys_subcategory": "Medicinsk Koldioxid",
  "sys_type": "",
  "sys_sub": "",
  "sys_bsab": "52.HB",
  "sys_coclass": "E30",
  "sys_comment": "G3",
  "aff": "SC4.4.2"
}