{
  "sys_id": 41,
  "sys_discipline": "Gas",
  "sys_type_id": "GH81",
  "sys_maincategory": "System för medicinsk gas",
  "sys_subcategory": "Helium",
  "sys_type": "",
  "sys_sub": "",
  "sys_bsab": "52.HB",
  "sys_coclass": "E30",
  "sys_comment": "G8",
  "aff": "SC4.4.2"
}