{
  "sys_id": 45,
  "sys_discipline": "Gas",
  "sys_type_id": "GO1x",
  "sys_maincategory": "System för medicinsk gas",
  "sys_subcategory": "Andningsoxygen",
  "sys_type": "",
  "sys_sub": "",
  "sys_bsab": "52.HB",
  "sys_coclass": "E30",
  "sys_comment": "G1",
  "aff": "SC4.4.2"
}