{
  "sys_id": 53,
  "sys_discipline": "Gas",
  "sys_type_id": "GN65",
  "sys_maincategory": "Specialgassystem",
  "sys_subcategory": "Nitrogen N2",
  "sys_type": "",
  "sys_sub": "",
  "sys_bsab": "52.HE",
  "sys_coclass": "E20",
  "sys_comment": "",
  "aff": "SC4.4"
}