{
  "sys_id": 61,
  "sys_discipline": "VS",
  "sys_type_id": "SFxx",
  "sys_maincategory": "Spillvattensystem",
  "sys_subcategory": "Spillvatten, fettavskiljare",
  "sys_type": "",
  "sys_sub": "",
  "sys_bsab": "53.BB",
  "sys_coclass": "G13",
  "sys_comment": "",
  "aff": "SC4.3"
}