{
  "sys_id": 68,
  "sys_discipline": "VS",
  "sys_type_id": "DTxx",
  "sys_maincategory": "Dagvattensystem",
  "sys_subcategory": "Dagvatten, tryckledning",
  "sys_type": "",
  "sys_sub": "",
  "sys_bsab": "53.BC",
  "sys_coclass": "G21.JD20",
  "sys_comment": "",
  "aff": "SC4.1.3"
}