{
  "sys_id": 86,
  "sys_discipline": "VS",
  "sys_type_id": "KYMxx",
  "sys_maincategory": "Kylmedelssystem",
  "sys_subcategory": "Kylmedelssystem",
  "sys_type": "",
  "sys_sub": "",
  "sys_bsab": "55.D",
  "sys_coclass": "H10.JF",
  "sys_comment": "",
  "aff": "SC4.5"
}