{
  "sys_id": 99,
  "sys_discipline": "VS",
  "sys_type_id": "VS1x",
  "sys_maincategory": "Värmevattensystem",
  "sys_subcategory": "Värmesystem, sekundär, ventilation",
  "sys_type": "",
  "sys_sub": "",
  "sys_bsab": "56.B",
  "sys_coclass": "H20.JG20",
  "sys_comment": "",
  "aff": "SC4.6"
}