{
  "sys_id": 104,
  "sys_discipline": "Vent",
  "sys_type_id": "",
  "sys_maincategory": "LUFTBEHANDLINGSSYSTEM",
  "sys_subcategory": "",
  "sys_type": "Överluft (Medie)",
  "sys_sub": "O",
  "sys_bsab": "57",
  "sys_coclass": "J.JJ50",
  "sys_comment": "Medie",
  "aff": "SC4.7"
}