{
  "sys_id": 105,
  "sys_discipline": "Vent",
  "sys_type_id": "",
  "sys_maincategory": "LUFTBEHANDLINGSSYSTEM",
  "sys_subcategory": "",
  "sys_type": "Tilluft (Medie)",
  "sys_sub": "T",
  "sys_bsab": "57",
  "sys_coclass": "J.JJ20",
  "sys_comment": "Medie",
  "aff": "SC4.7"
}