{
  "sys_id": 106,
  "sys_discipline": "Vent",
  "sys_type_id": "",
  "sys_maincategory": "LUFTBEHANDLINGSSYSTEM",
  "sys_subcategory": "",
  "sys_type": "Uteluft (Medie)",
  "sys_sub": "U",
  "sys_bsab": "57",
  "sys_coclass": "J.JJ10",
  "sys_comment": "Medie",
  "aff": "SC4.7"
}