{
  "sys_id": 107,
  "sys_discipline": "Vent",
  "sys_type_id": "",
  "sys_maincategory": "LUFTBEHANDLINGSSYSTEM",
  "sys_subcategory": "",
  "sys_type": "Cirkulationsluft (Medie)",
  "sys_sub": "C",
  "sys_bsab": "57",
  "sys_coclass": "J",
  "sys_comment": "Medie",
  "aff": "SC4.7"
}