{
  "sys_id": 116,
  "sys_discipline": "Vent",
  "sys_type_id": "BGVxx",
  "sys_maincategory": "Brandgaskontrollsystem",
  "sys_subcategory": "Brandgasventilation",
  "sys_type": "",
  "sys_sub": "",
  "sys_bsab": "57.D",
  "sys_coclass": "P10.KB10",
  "sys_comment": "",
  "aff": "SG1.2"
}