{
  "sys_id": 120,
  "sys_discipline": "El",
  "sys_type_id": "61",
  "sys_maincategory": "KANALISATIONSSYSTEM",
  "sys_subcategory": "Kanalisation",
  "sys_type": "",
  "sys_sub": "",
  "sys_bsab": "61",
  "sys_coclass": "S.BH",
  "sys_comment": "Rev i BIP system 1.1 (Tidigare K0)",
  "aff": "SC5"
}