{
  "sys_id": 130,
  "sys_discipline": "El",
  "sys_type_id": "63.K",
  "sys_maincategory": "Faskompenseringssystem",
  "sys_subcategory": "Faskompenseringssystem",
  "sys_type": "",
  "sys_sub": "",
  "sys_bsab": "63.K",
  "sys_coclass": "K.KH20",
  "sys_comment": "",
  "aff": "SC5.6"
}