{
  "sys_id": 139,
  "sys_discipline": "Tele",
  "sys_type_id": "H8",
  "sys_maincategory": "Teletekniska kontrollsystem",
  "sys_subcategory": "Trygghetslarm",
  "sys_type": "",
  "sys_sub": "",
  "sys_bsab": "64.CB",
  "sys_coclass": "P30.LE",
  "sys_comment": "",
  "aff": "SC6.2"
}