{
  "sys_id": 143,
  "sys_discipline": "Tele",
  "sys_type_id": "H5",
  "sys_maincategory": "Teletekniska kontrollsystem",
  "sys_subcategory": "Nödsignal",
  "sys_type": "",
  "sys_sub": "",
  "sys_bsab": "64.CBH",
  "sys_coclass": "M32",
  "sys_comment": "",
  "aff": "SC6.2"
}