{
  "sys_id": 146,
  "sys_discipline": "Tele",
  "sys_type_id": "C4",
  "sys_maincategory": "Teletekniska signalsystem",
  "sys_subcategory": "Upptaget, frånvaromarkering",
  "sys_type": "",
  "sys_sub": "",
  "sys_bsab": "64.DB",
  "sys_coclass": "M36",
  "sys_comment": "",
  "aff": "SC6.1"
}