{
  "sys_id": 154,
  "sys_discipline": "Tele",
  "sys_type_id": "G4",
  "sys_maincategory": "Tidsaktiverade signalsystem",
  "sys_subcategory": "Tidsignalering (rastsignal)",
  "sys_type": "",
  "sys_sub": "",
  "sys_bsab": "64.DCDB",
  "sys_coclass": "M41",
  "sys_comment": "",
  "aff": "SC6.1"
}