{
  "sys_id": 161,
  "sys_discipline": "Tele",
  "sys_type_id": "F4",
  "sys_maincategory": "Telekommunikationssystem",
  "sys_subcategory": "Ljudöverföring via magnetfält",
  "sys_type": "",
  "sys_sub": "",
  "sys_bsab": "64.ECB",
  "sys_coclass": "M22.MB20.JL40",
  "sys_comment": "",
  "aff": "SC6.2.2"
}