{
  "sys_id": 171,
  "sys_discipline": "Tele",
  "sys_type_id": "H7",
  "sys_maincategory": "Teletekniska styrsystem",
  "sys_subcategory": "Branddörrkontroll, Släcksystem",
  "sys_type": "",
  "sys_sub": "",
  "sys_bsab": "64.QF",
  "sys_coclass": "P10.PA10, P10.PB",
  "sys_comment": "",
  "aff": "SG1"
}