{
  "sys_id": 172,
  "sys_discipline": "Tele",
  "sys_type_id": "D4",
  "sys_maincategory": "Teletekniska styrsystem",
  "sys_subcategory": "Styrsystem AV",
  "sys_type": "",
  "sys_sub": "",
  "sys_bsab": "64.QH",
  "sys_coclass": "L.MB",
  "sys_comment": "",
  "aff": "SC6.2"
}