{
  "sys_id": 177,
  "sys_discipline": "El",
  "sys_type_id": "66.E",
  "sys_maincategory": "System för skydd mot statisk elektricitet",
  "sys_subcategory": "System för skydd mot statisk elektricitet",
  "sys_type": "",
  "sys_sub": "",
  "sys_bsab": "66.E",
  "sys_coclass": "P40.PG",
  "sys_comment": "",
  "aff": "SC5.6"
}