{
  "sys_id": 180,
  "sys_discipline": "El",
  "sys_type_id": "66.GC",
  "sys_maincategory": "System för potentialutjämning",
  "sys_subcategory": "Jordning och potentialutjämning",
  "sys_type": "",
  "sys_sub": "",
  "sys_bsab": "66.GC",
  "sys_coclass": "K.PC11",
  "sys_comment": "",
  "aff": "SC5.6"
}