{
  "sys_id": 206,
  "sys_discipline": "VS",
  "sys_type_id": "DRxx",
  "sys_maincategory": "Dagvattensystem",
  "sys_subcategory": "Dränvatten",
  "sys_type": "",
  "sys_sub": "",
  "sys_bsab": "53.BD",
  "sys_coclass": "G22",
  "sys_comment": "",
  "aff": "SC4.1.4"
}