{
  "sys_id": 207,
  "sys_discipline": "Vent",
  "sys_type_id": "LBVxx",
  "sys_maincategory": "Luftvärmesystem",
  "sys_subcategory": "Luftbehandlingssystem för ventilation och värme",
  "sys_type": "",
  "sys_sub": "",
  "sys_bsab": "57.F",
  "sys_coclass": "H21.JG40",
  "sys_comment": "",
  "aff": "SC4.7"
}