{
  "sys_id": 213,
  "sys_discipline": "VS",
  "sys_type_id": "VS4x",
  "sys_maincategory": "Värmevattensystem",
  "sys_subcategory": "Värmesystem, sekundär, markvärme",
  "sys_type": "",
  "sys_sub": "",
  "sys_bsab": "56.B",
  "sys_coclass": "H22.JG20",
  "sys_comment": "",
  "aff": "SC4.6"
}