{
  "sys_id": 241,
  "sys_discipline": "SPR",
  "sys_type_id": "GSAxx",
  "sys_maincategory": "Gassläcksystem",
  "sys_subcategory": "Gassläcksystem, Argonite",
  "sys_type": "",
  "sys_sub": "",
  "sys_bsab": "54.D/1",
  "sys_coclass": "P10.PB20",
  "sys_comment": "",
  "aff": "SG1.2.3"
}